{
  "places": [
    {
      "id": 0,
      "title": "Manhattan Mansion",
      "description": "In the heart of New York City.",
      "imageUrl": "https://media.bizj.us/view/img/11343209/gettyimages-1124942340*1200xx2061-1159-0-148.jpg",
      "price": 149.99
    },
    {
      "id": 1,
      "title": "Taipei, Taiwan",
      "description": "Taipei is a city with a rich history, though at 300 years young it’s a relative newcomer compared to its neighbors in the East.",
      "imageUrl": "https://media.cntraveler.com/photos/5d7a605e82f7680008172f4e/master/w_820,c_limit/Taipei,-Taiwan_GettyImages-181323651.jpg",
      "price": 89.99
    },
    {
      "id": 2,
      "title": "L'Amour Toujours",
      "description": "A romantic place in Paris!",
      "imageUrl": "https://photos.mandarinoriental.com/is/image/MandarinOriental/paris-2017-home?wid=2880&hei=1280&fmt=jpeg&crop=9,336,2699,1200&anchor=1358,936&qlt=75,0&fit=wrap&op_sharpen=0&resMode=sharp2&op_usm=0,0,0,0&iccEmbed=0&printRes=72",
      "price": 189.99
    },
    {
      "id": 3,
      "title": "The Foggy Palace",
      "description": "Not you average city trip!",
      "imageUrl": "https://i.pinimg.com/originals/de/77/80/de778003f90b396cb7e32b8c7fa0d478.jpg",
      "price": 99.99
    },
    {
      "id": 4,
      "title": "Cologne, Germany",
      "description": "Cologne is often overshadowed by Berlin and Munich, but the 2,000-year-old city on the banks of the Rhine River has its devotees for a reason—think High Gothic architecture, a dozen Romanesque churches, annual literary festivals, and the Museum Ludwig, one of the most important collections of modern art in Europe.",
      "imageUrl": "https://media.cntraveler.com/photos/5d7a6043b18b620008ca1356/master/w_820,c_limit/Cologne,-Germany_GettyImages-1144624537.jpg",
      "price": 120.99
    },
    {
      "id": 5,
      "title": "Monte Carlo, Monaco",
      "description": "Surrounded by the Maritime Alps on the shore of the Mediterranean Sea, glamorous Monte Carlo has been made famous through pop culture for its depiction in an array of films, from To Catch a Thief to GoldenEye, and even Cars 2.",
      "imageUrl": "https://media.cntraveler.com/photos/5d7a60524875770008344c6a/master/w_820,c_limit/Monte-Carlo,-Monaco_GettyImages-664656765.jpg",
      "price": 178.99
    },
    {
      "id": 6,
      "title": "Puebla, Mexico",
      "description": "The secret is out on Puebla. A popular day trip from Mexico City, Puebla is more than worthy as a destination on its own.",
      "imageUrl": "https://media.cntraveler.com/photos/5d7a6055b18b620008ca1358/master/w_820,c_limit/Puebla,-Mexico_GettyImages-610852938.jpg",
      "price": 169.99
    },
    {
      "id": 7,
      "title": "Florence, Italy",
      "description": "Though Rome is Italy’s much beloved capital and Milan has serious cosmopolitan clout, Florence remains unrivaled in history, art, and architecture (its beauty and cuisine don’t hurt, either).",
      "imageUrl": "https://media.cntraveler.com/photos/5d7a604d6823450008ac0050/master/w_820,c_limit/Florence,-Italy_GettyImages-995968160.jpg",
      "price": 109.99
    },
    {
      "id": 8,
      "title": "Bergen, Norway",
      "description": "Surrounded by mountains on Norway’s western shore, Bergen is one of Europe’s largest cruise ship ports of call and the gateway to Norway’s world-famous fjords. Discover the city’s Viking roots at the Bergen Museum and explore postcard-worthy Bryggen, a UNESCO World Heritage site along the harbor with shops, restaurants, and museums.",
      "imageUrl": "https://media.cntraveler.com/photos/5d7a60567ffc50000818c7d0/master/w_820,c_limit/Bergen,-Norway_GettyImages-909592060.jpg",
      "price": 104.99
    },
    {
      "id": 9,
      "title": "Puerto Vallarta, Mexico",
      "description": "Puerto Vallarta may have a certain youthful energy during spring break, but there’s so much more to this Pacific resort town than sunbathing undergrads.",
      "imageUrl": "https://media.cntraveler.com/photos/5d7a605b65eba500080bec0d/master/w_820,c_limit/Puerto-Vallarta,-Mexico_GettyImages-970167058.jpg",
      "price": 99.99
    },
    {
      "id": 10,
      "title": "Salzburg, Austria",
      "description": "Classic Salzburg, the birthplace of Mozart, sits divided by the Salzach River: its pedestrian Old City lines its left bank, and the (slightly) newer side is on the right.",
      "imageUrl": "https://media.cntraveler.com/photos/561e8507799ed1fe16a2cd06/master/w_820,c_limit/Salzburg-Austria-Getty.jpg",
      "price": 99.99
    },
    {
      "id": 11,
      "title": "Québec City, Canada",
      "description": "Hilltop Québec City is a place for all seasons—the charm of its 17th-century castles and cathedrals is only enhanced by snow (and where else can you say that in Canada?!).",
      "imageUrl": "https://media.cntraveler.com/photos/561e85038bd380d2282d7961/master/w_820,c_limit/Quebec-City-Canada-Alamy.jpg",
      "price": 124.99
    },
    {
      "id": 12,
      "title": "Dresden, Germany",
      "description": "Left in ruins at the end of World War II, Dresden stands today as a beautifully restored city in the east of Germany.",
      "imageUrl": "https://media.cntraveler.com/photos/5d7a604808a816000807c090/master/w_820,c_limit/Dresden,-Germany_GettyImages-1154982404.jpg",
      "price": 149.99
    },
    {
      "id": 13,
      "title": "Mérida, Mexico",
      "description": "The streets of Mérida are bursting with the colorful facades of Spanish colonial architecture, but the capital of Mexico’s Yucatan state is also steeped in Mayan history.",
      "imageUrl": "https://media.cntraveler.com/photos/5d9b883b4b1e400008203571/master/w_820,c_limit/Me%25CC%2581rida,-Mexico__Q3A8713-copy.jpg",
      "price": 199.99
    },
    {
      "id": 14,
      "title": "Sydney, Australia",
      "description": "Australia’s biggest city is an ideal getaway no matter the season. Dine al fresco, swim like a Sydneysider in rock pools, and head to Bondi and Redleaf beaches in the summer (remember, that’s during our winter).",
      "imageUrl": "https://media.cntraveler.com/photos/5d7a605cb18b620008ca135b/master/w_820,c_limit/Sydney,-Australia_GettyImages-1065215692.jpg",
      "price": 65.99
    }
  ],
  "bookings": [
    {
      "id": "xyz",
      "placeId": "p1",
      "placeTitle": "Manhattan Mansion",
      "guestNumber": 2,
      "userId": "abc"
    }
  ]
}
